<?xml version="1.0" encoding="utf-8"?>
<!-- Generator: Adobe Illustrator 18.0.0, SVG Export Plug-In . SVG Version: 6.00 Build 0)  -->
<!DOCTYPE svg PUBLIC "-//W3C//DTD SVG 1.1//EN" "http://www.w3.org/Graphics/SVG/1.1/DTD/svg11.dtd">
<svg version="1.1" id="Layer_1" xmlns="http://www.w3.org/2000/svg" xmlns:xlink="http://www.w3.org/1999/xlink" x="0px" y="0px"
	 viewBox="0 0 147.5 31.5" enable-background="new 0 0 147.5 31.5" xml:space="preserve">
<g>
	<g>
		<path fill="#FFFFFF" d="M54.2,9.8h5.5c1.3,0,2.4,0.4,3.2,1.1c0.5,0.5,0.8,1.1,0.8,2l0,0c0,1.3-0.7,2.1-1.5,2.6
			c1.3,0.4,2.1,1.2,2.1,2.8l0,0c0,2.2-1.8,3.2-4.4,3.2h-5.6L54.2,9.8L54.2,9.8z M59.1,14.6c1.1,0,1.9-0.4,1.9-1.3l0,0
			c0-0.8-0.7-1.2-1.7-1.2h-2.6v2.5H59.1z M59.7,19.4c1.1,0,1.9-0.4,1.9-1.3l0,0c0-0.8-0.6-1.3-2-1.3h-3v2.6L59.7,19.4L59.7,19.4
			L59.7,19.4z"/>
		<path fill="#FFFFFF" d="M91.4,17.1L91.4,17.1c0-2.6,2-4.8,4.8-4.8c1.7,0,2.8,0.5,3.6,1.5l-1.6,1.7c-0.5-0.6-1.1-1-2.1-1
			c-1.3,0-2.2,1.1-2.2,2.5l0,0c0,1.3,0.9,2.5,2.3,2.5c0.9,0,1.5-0.4,2.1-1l1.5,1.5c-0.9,1-1.9,1.7-3.7,1.7
			C93.4,21.9,91.4,19.7,91.4,17.1z"/>
		<path fill="#FFFFFF" d="M100.5,9.3h2.6v12.4h-2.6V9.3z"/>
		<rect x="104.5" y="12.5" fill="#FFFFFF" width="2.6" height="9.1"/>
		<path fill="#FFFFFF" d="M108.5,12.5h2.6v1.3c0.6-0.7,1.3-1.5,2.7-1.5c2,0,3,1.3,3,3.4v5.9h-2.6v-5c0-1.3-0.5-1.9-1.5-1.9
			s-1.6,0.6-1.6,1.9v5h-2.6V12.5z"/>
		<path fill="#FFFFFF" d="M117.8,23.4l0.9-2c0.9,0.5,1.9,0.8,3,0.8c1.8,0,2.6-0.8,2.6-2.5v-0.4c-0.7,0.9-1.6,1.5-3,1.5
			c-2.2,0-4.1-1.5-4.1-4.2l0,0c0-2.7,2-4.2,4.1-4.2c1.5,0,2.2,0.6,3,1.3v-1.3h2.6v7c0,1.6-0.4,2.8-1.1,3.6c-0.8,0.8-2.2,1.3-3.9,1.3
			C120.4,24.4,119,24,117.8,23.4z M124.4,16.7L124.4,16.7c0-1.3-1-2.2-2.2-2.2s-2.2,0.9-2.2,2.1l0,0c0,1.3,1,2.1,2.2,2.1
			S124.4,17.9,124.4,16.7z"/>
		<circle fill="#FFFFFF" cx="105.9" cy="10.7" r="1.3"/>
		<g>
			<path fill="#FFFFFF" d="M64.7,23.8l0.9-1.9c0.4,0.2,0.7,0.4,1.1,0.4c0.4,0,0.7-0.2,0.9-0.6L64,12.6h2.7l2.1,6.2l2-6.2h2.5
				l-3.5,9.3c-0.7,1.9-1.5,2.5-3,2.5C66,24.4,65.4,24.1,64.7,23.8z"/>
		</g>
		<g>
			<path fill="#FFFFFF" d="M127.5,10H127V9.6h1.6V10H128v1.5h-0.4L127.5,10L127.5,10z"/>
			<path fill="#FFFFFF" d="M128.9,9.6h0.4l0.5,0.8l0.5-0.8h0.4v1.9h-0.4v-1.3l-0.6,0.8l0,0l-0.5-0.8v1.3h-0.4
				C128.9,11.5,128.9,9.6,128.9,9.6z"/>
		</g>
		<g>
			<path fill="#FFFFFF" d="M83.5,12.5l1-1.1c-1.1-1.1-2.4-1.8-4.7-1.8c-3.7,0-6.2,2.8-6.2,6.1l0,0c0,3.4,2.6,6.1,6.1,6.1
				c2.2,0,3.7-0.8,4.8-2.2l-1.6-1.7c-0.9,0.8-1.8,1.3-3.2,1.3c-2.1,0-3.4-1.7-3.4-3.7l0,0c0-2.1,1.5-3.7,3.4-3.7
				c1.1,0,2.2,0.5,3,1.5l0,0l-0.4-0.8H83.5L83.5,12.5z"/>
			<polygon fill="#FFFFFF" points="82.5,12.5 82.9,13.4 83.5,12.5 			"/>
			<g>
				<path fill="#FFFFFF" d="M84.6,19.7l-1.7-1.6c-0.9,0.8-1.8,1.3-3.2,1.3c-2.1,0-3.4-1.7-3.4-3.7l0,0c0-2.1,1.5-3.7,3.4-3.7
					c1.1,0,2.2,0.5,3,1.5l0,0l0.6-0.8l1-1.1c-1.1-1.1-2.4-1.8-4.7-1.8c-3.7,0-6.2,2.8-6.2,6.1l0,0c0,3.4,2.6,6.1,6.1,6.1
					C82,21.9,83.4,21.1,84.6,19.7z"/>
				<path fill="#FFFFFF" d="M84.1,21.9L84.1,21.9C84.1,22,84.1,22,84.1,21.9L84.1,21.9z"/>
				<g>
					<polygon fill="#FFFFFF" points="85.4,19.7 85.2,19.5 85.4,19.8 					"/>
					<path fill="#FFFFFF" d="M79.7,19.5c-2.1,0-3.4-1.7-3.4-3.7l0,0c0-2.1,1.5-3.7,3.4-3.7c1.1,0,2.2,0.5,3,1.5l0,0l0.6-0.8l1-1.2
						c-1.1-1.1-2.4-1.8-4.7-1.8c-3.7,0-6.2,2.8-6.2,6.1l0,0c0,3.4,2.6,6.1,6.1,6.1c2.2,0,3.7-0.8,4.8-2.2l-1.7-1.7
						C82,19,81.1,19.5,79.7,19.5z"/>
					<g>
						<polygon fill="#FFFFFF" points="85.2,19.6 84.6,17.9 85.2,19.5 						"/>
						<path fill="#FFFFFF" d="M84.6,19.7l-1.7-1.6c-0.9,0.8-1.8,1.3-3.2,1.3c-2.1,0-3.4-1.7-3.4-3.7l0,0c0-2.1,1.5-3.7,3.4-3.7
							c1.1,0,2.2,0.5,3,1.5l0,0l0.6-0.8l1-1.1c-1.1-1.1-2.4-1.8-4.7-1.8c-3.7,0-6.2,2.8-6.2,6.1l0,0c0,3.4,2.6,6.1,6.1,6.1
							C82,21.9,83.4,21.1,84.6,19.7z"/>
						<path fill="#FFFFFF" d="M84.1,21.9L84.1,21.9C84.1,22,84.1,22,84.1,21.9L84.1,21.9z"/>
						<path fill="#FFFFFF" d="M89.3,12.5l-2,6.2l-2.1-6.2l-1.3,1.6l-0.4,0.6l1.1,3l0.6,1.7l0.1,0.3l0.3,0.7l0.4,1.1
							c-0.2,0.4-0.4,0.6-0.9,0.6c-0.4,0-0.7-0.2-1.1-0.4c0,0,0,0-0.1,0.1l-0.8,1.8c0.6,0.4,1.3,0.6,2.2,0.6c1.5,0,2.2-0.7,3-2.5
							l3.5-9.3L89.3,12.5L89.3,12.5z"/>
						<path fill="#FFFFFF" d="M89.3,12.5l-2,6.2l-2.1-6.2l-1.3,1.6l-0.4,0.6l1.1,3l0.6,1.7l0.1,0.3l0.3,0.7l0.4,1.1
							c-0.2,0.4-0.4,0.6-0.9,0.6c-0.4,0-0.7-0.2-1.1-0.4c0,0,0,0-0.1,0.1l-0.8,1.8c0.6,0.4,1.3,0.6,2.2,0.6c1.5,0,2.2-0.7,3-2.5
							l3.5-9.3L89.3,12.5L89.3,12.5z"/>
					</g>
				</g>
			</g>
			<path fill="#FFFFFF" d="M84.1,21.9L84.1,21.9C84.1,22,84.1,22,84.1,21.9L84.1,21.9z"/>
		</g>
	</g>
	<path fill="#00E086" d="M48.2,15.6C48.2,7,41.1,0,32.6,0S16.9,7,16.8,15.6l0,0c0,0,0,0,0,0.1c0,0,0,0,0,0.1
		c0,8.7,7.1,15.7,15.7,15.7s15.7-7.1,15.7-15.7C48.2,15.7,48.2,15.7,48.2,15.6L48.2,15.6L48.2,15.6z M18.9,19.6
		c1.1,0.9,2.5,1.6,4.2,2.2c0.2,0.6,0.4,1.5,1.1,2.7c-1.8-0.6-3.3-1.5-4.3-2.4C19.5,21.3,19.2,20.5,18.9,19.6z M29.5,21.4l2.3-4.1
		c0.1,0,0.2,0.1,0.3,0.1v4.2C31.3,21.6,30.4,21.5,29.5,21.4z M32.2,23.3v2.4c-0.8,0-1.7-0.1-2.4-0.1c-0.3-0.7-0.4-1.5-0.6-2.5
		C30.1,23.3,31.2,23.3,32.2,23.3z M28.9,21.4c-1.5-0.2-2.9-0.4-4.1-0.9l6.3-3.7c0.1,0.1,0.2,0.2,0.2,0.2L28.9,21.4z M28.5,23.1
		c0.1,0.9,0.3,1.7,0.5,2.5c-1.3-0.2-2.6-0.5-3.8-0.8c-0.7-1.1-1.1-2.1-1.3-2.7C25.3,22.5,26.9,22.8,28.5,23.1z M21.1,23.9
		c1.1,0.6,2.4,1.3,3.9,1.7c1,1.3,2.4,2.7,4.6,3.9C26.1,28.8,23.1,26.7,21.1,23.9z M26.1,25.9c1,0.3,2.2,0.4,3.3,0.5
		c0.5,1.5,1.3,2.6,1.9,3.3C28.9,28.5,27.2,27.1,26.1,25.9z M32.2,29.8c-0.5-0.6-1.5-1.8-2.1-3.3c0.7,0.1,1.5,0.1,2.2,0.1L32.2,29.8
		L32.2,29.8z M32.5,16.9c-0.2,0-0.4-0.1-0.6-0.2c-0.6-0.4-0.8-1.1-0.5-1.6c0.2-0.4,0.6-0.5,1-0.5c0.2,0,0.4,0.1,0.6,0.2
		c0.5,0.4,0.7,1.1,0.4,1.6C33.3,16.7,32.9,16.9,32.5,16.9z M36.1,21.4l-2.5-4.3c0.1-0.1,0.2-0.2,0.2-0.2l6.3,3.7
		C39,20.9,37.6,21.2,36.1,21.4z M41.1,22.1c-0.2,0.7-0.6,1.6-1.3,2.7c-1.1,0.4-2.4,0.6-3.7,0.7c0.3-0.7,0.4-1.6,0.5-2.5
		C38.1,22.8,39.6,22.5,41.1,22.1z M32.8,17.5c0.1,0,0.2,0,0.3-0.1l2.3,4.1c-0.9,0.1-1.8,0.2-2.7,0.2L32.8,17.5z M32.8,23.3
		c1,0,2.1-0.1,3-0.2c-0.1,0.9-0.4,1.7-0.6,2.5c-0.8,0.1-1.6,0.1-2.5,0.1L32.8,23.3z M32.8,29.8v-3.2c0.7,0,1.5,0,2.2-0.1
		C34.2,28,33.5,29.2,32.8,29.8L32.8,29.8z M35.7,26.4c1.1-0.1,2.2-0.3,3.2-0.5c-1.1,1.3-2.7,2.6-5.1,3.9
		C34.4,28.9,35.1,27.8,35.7,26.4z M35.3,29.5c2.2-1.3,3.6-2.7,4.6-3.9c1.5-0.4,2.9-1,4.1-1.7C41.9,26.7,38.9,28.8,35.3,29.5z
		 M45,22.1c-1,1-2.5,1.8-4.4,2.4c0.6-1.1,1-2.1,1.1-2.7c1.7-0.6,3.2-1.3,4.2-2.2C45.8,20.5,45.5,21.3,45,22.1z M41,20.3l-6.8-3.9
		c0-0.1,0.1-0.2,0.1-0.3h10.6c0.2,0,0.3-0.2,0.3-0.3v0c0-0.1-0.2-0.2-0.3-0.2l0,0H34.2c0-0.1,0-0.2-0.1-0.3l9.3-5.4
		c0.2-0.1,0.2-0.3,0.1-0.4c-0.1-0.2-0.3-0.2-0.4-0.1l-9.3,5.4c-0.1-0.1-0.2-0.2-0.2-0.2L39,5.3c0.1-0.2,0-0.4-0.1-0.4
		c-0.2-0.1-0.4,0-0.4,0.1l-5.4,9.2c-0.1,0-0.2-0.1-0.3-0.1V3.4c0-0.2-0.2-0.3-0.3-0.3l0,0c-0.2,0-0.3,0.2-0.3,0.3v10.7
		c0.1,0-0.1,0-0.1,0l-5.5-9.2c-0.1-0.2-0.3-0.2-0.4-0.1C26,5,26,5.1,26.1,5.3l5.4,9.2c-0.1,0.1-0.2,0.2-0.2,0.2l-9.4-5.4
		c-0.2-0.1-0.4,0-0.4,0.1c-0.1,0.2,0,0.4,0.1,0.4l9.2,5.3c0,0.1-0.1,0.2-0.1,0.3H20c-0.1,0-0.3,0.1-0.3,0.2v0.1
		c0,0.2,0.2,0.3,0.3,0.3l0,0h10.6c0,0.1,0,0.2,0.1,0.3l-6.8,4.1c-3.3-1.3-5.4-3-5.6-4.9l0,0c0.2-7.6,6.4-13.8,14.2-13.8
		s14,6.3,14.1,13.9l0,0C46.5,17.5,44.3,19.2,41,20.3z"/>
</g>
</svg>
